{
  "show": [
    {
      "name": "War Planets",
      "id": 19581,
      "imageSmall": "http://static.tvmaze.com/uploads/images/medium_portrait/69/172691.jpg",
      "language": "English",
      "genres": [
        "Action",
        "Science-Fiction"
      ],
      "imageBig": "http://static.tvmaze.com/uploads/images/original_untouched/69/172691.jpg",
      "runtime": 30,
      "summary": "<p>The inhabitants of four mutually hostile worlds must unite their forces to face the grave menace of an invading planet &amp; population.</p>",
      "type": "Animation",
      "officialSite": null
    },
    {
      "id": 8246,
      "name": "The Civil War",
      "imageSmall": "http://static.tvmaze.com/uploads/images/medium_portrait/29/74584.jpg",
      "imageBig": "http://static.tvmaze.com/uploads/images/original_untouched/29/74584.jpg",
      "language": "English",
      "genres": [
        "War",
        "History"
      ],
      "runtime": 140,
      "summary": "<p>Between 1861 and 1865, Americans made war on each other and killed each other in great numbers - if only to become the kind of country that could no longer conceive of how that was possible. What began as a bitter dispute over Union and States' Rights, ended as a struggle over the meaning of freedom in America.</p>",
      "officialSite": null,
      "type": "Documentary"
    },
    {
      "name": "World War II: Confidential",
      "id": 30373,
      "imageSmall": "http://static.tvmaze.com/uploads/images/medium_portrait/120/300246.jpg",
      "language": "English",
      "genres": "War, War",
      "imageBig": "http://static.tvmaze.com/uploads/images/original_untouched/120/300246.jpg",
      "runtime": 60,
      "summary": "<p>In <b>World War II: Confidential</b>, the backroom dealings of Winston Churchill, Franklin D. Roosevelt and Joseph Stalin during WWII are explored.</p>",
      "type": "Documentary",
      "officialSite": "https://www.ahctv.com/schedule"
    },
    {
      "name": "The Game",
      "id": 1436,
      "imageSmall": "http://static.tvmaze.com/uploads/images/medium_portrait/8/20717.jpg",
      "language": "English",
      "genres": [
        "Drama"
      ],
      "imageBig": "http://static.tvmaze.com/uploads/images/original_untouched/8/20717.jpg",
      "runtime": 60,
      "summary": "<p>In the secret world of espionage, the players are set and the fight to save Britain begins. A complex invisible war is being fought by skilled spies trained in the high stakes world of covert espionage. In 1972 London, tensions are at a terrifying peak as the world's super powers plot against their enemies. The threat: a dangerous and deadly Soviet plot, designed to bring Britain to its knees, dubbed Operation Glass. This is where The Game begins – a stylish, character-driven spy drama that explores the lives and lies of the invisible soldiers fighting a secret war.<br></p>",
      "type": "Scripted",
      "officialSite": "www.google.pl"
    },
    {
      "id": 5728,
      "name": "Pokemon Origins",
      "imageSmall": "http://static.tvmaze.com/uploads/images/medium_portrait/22/57180.jpg",
      "imageBig": "http://static.tvmaze.com/uploads/images/original_untouched/22/57180.jpg",
      "language": "Japanese",
      "genres": [
        "Comedy",
        "Action",
        "Adventure",
        "Anime",
        "Children",
        "Fantasy"
      ],
      "runtime": 27,
      "summary": "<p><b>Pokemon Origins</b> follows Red in his journey through the region of Kanto in his attempt to complete his \"Pokédex\" by capturing and cataloging all the Pokémon that exist. Along the way he'll discover there's more to himself and his goals than he originally thought. Red will have to put both himself and his Pokémon to the test in special Gyms whose leaders are steps along the way to the Pokémon League, in order to challenge the Elite Four and become a Pokémon League Champion.<br /><br />Aside from his goals to become a Champion, Red has other problems brewing. There are others who capture and train Pokémon for more sinister reasons, with the infamous criminal organization Team Rocket being one of them. If Red can defeat them, fellow trainers, his rival Green, and wild Pokémon all through Kanto, he just may fulfill his own dream, and Doctor Ookido's as well.</p>",
      "officialSite": null,
      "type": "Animation"
    },
    {
      "id": 19090,
      "name": "The War",
      "imageSmall": "http://static.tvmaze.com/uploads/images/medium_portrait/66/165937.jpg",
      "imageBig": "http://static.tvmaze.com/uploads/images/original_untouched/66/165937.jpg",
      "language": "English",
      "genres": [],
      "runtime": 150,
      "summary": "<p>The War is the story of the Second World War through the personal accounts of a handful of men and women from four American towns. The war touched the lives of every family on every street in every town in America and demonstrated that in extraordinary times, there are no ordinary lives. A seven-part series by Ken Burns which includes interviews and archive footage.</p>",
      "officialSite": null,
      "type": "Documentary"
    },
    {
      "id": 333,
      "name": "The Game",
      "imageSmall": "http://static.tvmaze.com/uploads/images/medium_portrait/2/5301.jpg",
      "imageBig": "http://static.tvmaze.com/uploads/images/original_untouched/2/5301.jpg",
      "language": "English",
      "genres": [
        "Drama",
        "Comedy"
      ],
      "runtime": 30,
      "summary": "<p>From creators Mara Brock Akil and Kelsey Grammer, comes a comedy about three special woman, each in a relationship with one of three hard-working football players. Melanie is trying to work her relationship with Derwin, her boyfriend, while Tasha Mack balances the relationship she has with her son, Malik and with her job. Kelly and Jason are also working hard to make their relationship last.<br><b>The Game</b> focuses on each of the relationships present in these women's lives -- those with both friends and lovers -- as they learn the rules of the game.</p>",
      "officialSite": "http://www.bet.com/shows/the-game.html",
      "type": "Scripted"
    },
    {
      "id": 82,
      "name": "Game of Thrones",
      "imageSmall": "http://static.tvmaze.com/uploads/images/medium_portrait/114/287081.jpg",
      "imageBig": "http://static.tvmaze.com/uploads/images/original_untouched/114/287081.jpg",
      "language": "English",
      "genres": [
        "Drama",
        "Adventure",
        "Fantasy"
      ],
      "runtime": 60,
      "summary": "<p>Based on the bestselling book series <i>A Song of Ice and Fire</i> by George R.R. Martin, this sprawling new HBO drama is set in a world where summers span decades and winters can last a lifetime. From the scheming south and the savage eastern lands, to the frozen north and ancient Wall that protects the realm from the mysterious darkness beyond, the powerful families of the Seven Kingdoms are locked in a battle for the Iron Throne. This is a story of duplicity and treachery, nobility and honor, conquest and triumph. In the <b>Game of Thrones</b>, you either win or you die.</p>",
      "officialSite": "http://www.hbo.com/game-of-thrones",
      "type": "Scripted"
    },
    {
      "id": 23647,
      "name": "Game",
      "imageSmall": "http://static.tvmaze.com/uploads/images/medium_portrait/88/222083.jpg",
      "imageBig": "http://static.tvmaze.com/uploads/images/original_untouched/88/222083.jpg",
      "language": "Chinese",
      "genres": [],
      "runtime": 60,
      "summary": null,
      "officialSite": null,
      "type": "Scripted"
    },
    {
      "id": 961,
      "name": "The Lying Game",
      "imageSmall": "http://static.tvmaze.com/uploads/images/medium_portrait/6/16387.jpg",
      "imageBig": "http://static.tvmaze.com/uploads/images/original_untouched/6/16387.jpg",
      "language": "English",
      "genres": [
        "Drama",
        "Thriller"
      ],
      "runtime": 60,
      "summary": "<p><i><b>\"The Lying Game\"</b></i> follows Emma, a kind-hearted foster kid who learns she has an identical twin sister, Sutton. Sutton, unlike Emma, was adopted by wealthy parents and is seemingly living an ideal life. After their initial meeting, Sutton talks Emma into stepping into her life for a few days while she pursues a lead on the mysterious identity of their birth mother. After Sutton inexplicably fails to return to the girls' designated meeting place, Emma must decide whether to come clean about her identity and risk her own safety in the hope of uncovering her twin sister's whereabouts, along with the truth about why they were separated in the first place.</p>",
      "officialSite": null,
      "type": "Scripted"
    },
    {
      "id": 118,
      "name": "House",
      "imageSmall": "http://static.tvmaze.com/uploads/images/medium_portrait/43/109520.jpg",
      "imageBig": "http://static.tvmaze.com/uploads/images/original_untouched/43/109520.jpg",
      "language": "English",
      "genres": [
        "Drama",
        "Mystery",
        "Medical"
      ],
      "runtime": 60,
      "summary": "<p>Sink your teeth into meaty drama and intrigue with <b>House</b>, FOX's take on mystery, where the villain is a medical malady and the hero is an irreverent, controversial doctor who trusts no one, least of all his patients.</p>",
      "officialSite": null,
      "type": "Scripted"
    },
    {
      "id": 23819,
      "name": "War Junk",
      "imageSmall": "http://static.tvmaze.com/uploads/images/medium_portrait/90/225414.jpg",
      "imageBig": "http://static.tvmaze.com/uploads/images/original_untouched/90/225414.jpg",
      "language": "English",
      "genres": [
        "War",
        "History"
      ],
      "runtime": 60,
      "summary": "<p>This Canadian-produced series hosted by historian David O'Keefe and history buff and filmmaker Wayne Abbott, tells the stories of legendary battlefields by the objects of war left behind, and the emotional reunions as they connect the past with the present by locating surviving family members connected to battlefield artifacts.</p>",
      "officialSite": "http://www.history.ca/war-junk/",
      "type": "Documentary"
    },
    {
      "id": 23097,
      "name": "Cold War",
      "imageSmall": "http://static.tvmaze.com/uploads/images/medium_portrait/86/215419.jpg",
      "imageBig": "http://static.tvmaze.com/uploads/images/original_untouched/86/215419.jpg",
      "language": "English",
      "genres": [
        "War",
        "History"
      ],
      "runtime": 60,
      "summary": "<p>Giving unparalleled insight from those who lived and fought through the events that defined an era, <b>Cold War</b> lets viewers see how the events of yesterday have shaped the world of today.</p>",
      "officialSite": "http://edition.cnn.com/SPECIALS/coldwar/",
      "type": "Documentary"
    },
    {
      "id": 4207,
      "name": "Storage Wars: Canada",
      "imageSmall": "http://static.tvmaze.com/uploads/images/medium_portrait/20/50581.jpg",
      "imageBig": "http://static.tvmaze.com/uploads/images/original_untouched/20/50581.jpg",
      "language": "English",
      "genres": [],
      "runtime": 30,
      "summary": "<p>On a daily basis, high-stakes buyers descend upon repossessed and forgotten storage units all across Canada. OLN's <b>Storage Wars: Canada</b> follows four teams hoping to score big on a modern treasure hunt. Following Roy Dirnbeck, Cindy Hayden and Rick Coffill, Ursula Stolf and father-son duo Paul and Bogart Kenny, the series explores the world of these experienced and determined buyers. Having just five minutes to explore the unit before it goes up for auction, the buyers bid for a locker full of what could be a load of trash, or a grand treasure. With all levels of experience, these teams do whatever it takes to find the next big deal.</p>",
      "officialSite": "http://www.oln.ca/shows/storage-wars-canada/",
      "type": "Reality"
    },
    {
      "id": 24301,
      "name": "The Unknown War",
      "imageSmall": "http://static.tvmaze.com/uploads/images/medium_portrait/92/230906.jpg",
      "imageBig": "http://static.tvmaze.com/uploads/images/original_untouched/92/230906.jpg",
      "language": "English",
      "genres": [
        "War",
        "History"
      ],
      "runtime": 55,
      "summary": "<p><b>The Unknown War</b> Sprawling, 20-part documentary history in film of the World War II conflict between Nazi Germany and the Soviet Union. Companion book, The Unknown War, written by NYT reporter Harrison Salisbury. Each episode is about 52 minutes, similar in format to The World at War. The footage was edited from over 3.5 million feet of film taken by Soviet camera crews from the first day of the war, 22 June 1941, to the soviet entry in Berlin in May 1945. Most of these films have never been seen outside this documentary series. Narrated by Burt Lancaster.</p>",
      "officialSite": null,
      "type": "Documentary"
    },
    {
      "id": 7916,
      "name": "Adam Zkt. Eva",
      "imageSmall": "http://static.tvmaze.com/uploads/images/medium_portrait/55/138215.jpg",
      "imageBig": "http://static.tvmaze.com/uploads/images/original_untouched/55/138215.jpg",
      "language": "Dutch",
      "genres": [
        "Romance",
        "Adult"
      ],
      "runtime": 60,
      "summary": "<p><b>Adam Zkt. Eva</b> is a Dutch dating show which first aired in 2014. The show's gimmick is that the two candidates are naked and an additional twist is that a second candidate (also naked) for the main character's affections is introduced halfway through the program. The show is shot on Mogo Mogo Island of the Pearl Islands.</p>",
      "officialSite": null,
      "type": "Reality"
    },
    {
      "name": "Rated A for Adult",
      "id": 30015,
      "imageSmall": "http://static.tvmaze.com/uploads/images/medium_portrait/118/297438.jpg",
      "language": "English",
      "genres": [
        "Genres",
        "not",
        "set"
      ],
      "imageBig": "http://static.tvmaze.com/uploads/images/original_untouched/118/297438.jpg",
      "runtime": 30,
      "summary": "<p>Sasha Grey gets personal with top names in adult industry. Jesse Jane gets her Penthouse key. Tera Patrick gives history of the AVN awards, and Ron Jeremy...</p>",
      "type": "Reality",
      "officialSite": null
    }
  ]
}